<?xml version="1.0" standalone="no"?>
<!DOCTYPE svg PUBLIC "-//W3C//DTD SVG 20010904//EN"
 "http://www.w3.org/TR/2001/REC-SVG-20010904/DTD/svg10.dtd">
<svg version="1.0" xmlns="http://www.w3.org/2000/svg"
 width="512.000000pt" height="512.000000pt" viewBox="0 0 512.000000 512.000000"
 preserveAspectRatio="xMidYMid meet">
<metadata>
Created by potrace 1.16, written by Peter Selinger 2001-2019
</metadata>
<g transform="translate(0.000000,512.000000) scale(0.100000,-0.100000)"
fill="#000000" stroke="none">
<path d="M2305 5113 c-671 -72 -1279 -393 -1707 -903 -301 -358 -488 -764
-571 -1240 -19 -109 -21 -162 -21 -410 0 -248 2 -301 21 -410 94 -540 320
-987 693 -1374 383 -398 866 -650 1430 -749 109 -19 162 -21 410 -21 313 0
407 10 653 73 882 228 1600 946 1828 1828 63 246 73 340 73 653 0 313 -10 407
-73 653 -228 881 -946 1600 -1828 1828 -227 58 -334 71 -613 74 -140 2 -273 1
-295 -2z m1437 -1530 c138 -96 109 -309 -49 -365 -56 -19 -2210 -19 -2266 0
-116 42 -171 176 -116 289 21 42 82 95 124 106 11 3 524 4 1140 3 l1120 -1 47
-32z m-59 -824 c46 -13 109 -67 131 -113 21 -44 21 -128 0 -172 -22 -46 -85
-100 -131 -113 -53 -15 -2193 -15 -2246 0 -46 13 -109 67 -131 113 -20 43 -21
128 -1 170 22 46 76 95 121 111 32 12 228 14 1129 15 739 0 1102 -4 1128 -11z
m22 -862 c80 -36 124 -104 125 -191 0 -69 -31 -129 -88 -169 l-47 -32 -1135 0
-1135 0 -47 32 c-80 56 -110 161 -73 251 29 67 78 106 158 122 23 4 528 7
1122 7 1016 -2 1082 -3 1120 -20z"/>
</g>
</svg>
